{
  "items": [
      {
          "name": "What is Omr today App?",
          "children": [
              {

                  "information": "Pastrami pork belly ball tip andouille corned beef jerky shankle landjaeger. Chicken chuck porchetta picanha, ham brisket tenderloin venison meatloaf landjaeger jowl."
               
              }
          ]
      },
      {
          "name": "How do I Contact Customer Support?",
          "children": [
            {

                "information": "You can email us on support@acestranetworks.com or call us on 044-12323324(9:00AM to 10:00 PM)"
                
            }
          ]
      },
      {
          "name": "Why should I download the omr today mobile app? ",
          "children": [
              {

                  "information": " Landjaeger fatback shank frankfurter, tongue shoulder ham strip steak pancetta pork short loin corned beef short ribs biltong cow"
                  
              }
          ]
      }
  ]
}